[
    {
        "model": "meleager_user.user",
        "fields": {
            "password": "!cftze7QXrzidvow2x53dqyGZFqBHkZg63vEFGzJw",
            "last_login": null,
            "is_superuser": false,
            "username": "AnonymousUser",
            "first_name": "",
            "last_name": "",
            "email": "",
            "is_staff": false,
            "is_active": true,
            "date_joined": "2020-11-12T06:14:06.173Z",
            "institution": "",
            "groups": [],
            "user_permissions": []
        }
    },
    {
        "model": "meleager_user.user",
        "fields": {
            "password": "pbkdf2_sha256$216000$itKY4GPhYWHR$d1pd9QDaZZosNEzNcul6UCE/M3BtvK3DhRQiO1y6Ga4=",
            "last_login": null,
            "is_superuser": true,
            "username": "test_admin",
            "first_name": "",
            "last_name": "",
            "email": "admin@test.com",
            "is_staff": true,
            "is_active": true,
            "date_joined": "2020-11-12T06:59:06.702Z",
            "institution": "",
            "groups": [],
            "user_permissions": []
        }
    }
]